…
``` r
survey %>% 
  count(country) %>% 
  arrange(desc(n))
```

    ## # A tibble: 294 x 2
    ##    country                      n
    ##    <chr>                    <int>
    ##  1 United States             8935
    ##  2 USA                       7891
    ##  3 US                        2467
    ##  4 Canada                    1536
    ##  5 United Kingdom             581
    ##  6 UK                         579
    ##  7 U.S.                       567
    ##  8 United States of America   423
    ##  9 Usa                        418
    ## 10 Australia                  366
    ## # ... with 284 more rows
…
``` r
survey <- survey %>% 
  mutate(other_monetary_comp = ifelse(is.na(other_monetary_comp), 0 , other_monetary_comp))
```

### State

``` r
survey %>% 
  count(state) %>% 
  arrange(desc(n))
```

    ## # A tibble: 125 x 2
    ##    state                    n
    ##    <chr>                <int>
    ##  1 California            2410
    ##  2 New York              2024
    ##  3 Massachusetts         1440
    ##  4 Texas                 1163
    ##  5 Illinois              1117
    ##  6 Washington            1110
    ##  7 District of Columbia   944
    ##  8 Pennsylvania           877
    ##  9 Virginia               725
    ## 10 Minnesota              667
    ## # ... with 115 more rows
…
``` r
survey <- survey %>% 
  drop_na(gender)
```

### Race

``` r
survey %>% 
  count(race)
```

    ## # A tibble: 44 x 2
    ##    race                                                                        n
    ##  * <chr>                                                                   <int>
    ##  1 Another option not listed here or prefer not to answer                    404
    ##  2 Asian or Asian American                                                   945
    ##  3 Asian or Asian American, Another option not listed here or prefer not ~     5
    ##  4 Asian or Asian American, Black or African American                          7
    ##  5 Asian or Asian American, Black or African American, Hispanic, Latino, ~     1
    ##  6 Asian or Asian American, Black or African American, Native American or~     1
    ##  7 Asian or Asian American, Black or African American, White                   3
    ##  8 Asian or Asian American, Hispanic, Latino, or Spanish origin               11
    ##  9 Asian or Asian American, Hispanic, Latino, or Spanish origin, Another ~     1
    ## 10 Asian or Asian American, Hispanic, Latino, or Spanish origin, Native A~     1
    ## # ... with 34 more rows
…
A large majority of of survey respondents were white.

### Industry

``` r
survey %>% 
  count(industry) %>% 
  arrange(desc(n))
```

    ## # A tibble: 910 x 2
    ##    industry                                 n
    ##    <chr>                                <int>
    ##  1 Computing or Tech                     3399
    ##  2 Nonprofits                            2016
    ##  3 Education (Higher Education)          1950
    ##  4 Health care                           1462
    ##  5 Accounting, Banking & Finance         1344
    ##  6 Government and Public Administration  1340
    ##  7 Engineering or Manufacturing          1254
    ##  8 Law                                    896
    ##  9 Marketing, Advertising & PR            838
    ## 10 Education (Primary/Secondary)          676
    ## # ... with 900 more rows
…
``` r
survey %>% 
  filter(total_income > 1000000)
```

    ## # A tibble: 21 x 17
    ##    how_old_are_you industry     job_title       additional_contex~ annual_salary
    ##    <chr>           <chr>        <chr>           <chr>                      <dbl>
    ##  1 35-44           Computing o~ Software Devel~ <NA>                      250000
    ##  2 55-64           Art & Design Owner and CEO   <NA>                     3000000
    ##  3 25-34           Engineering~ Software Engin~ <NA>                     1100000
    ##  4 25-34           Health care  Attending Phys~ <NA>                     1900000
    ##  5 25-34           Computing o~ Principal Soft~ <NA>                     1650000
    ##  6 35-44           Government ~ Senior Policy ~ <NA>                     1334782
    ##  7 45-54           Law          Partner         <NA>                     1200000
    ##  8 35-44           Computing o~ Product Manager <NA>                      135000
    ##  9 35-44           Law          Partner         <NA>                     1100000
    ## 10 25-34           Business or~ Senior Consult~ Consultant in the~       1260000
    ## # ... with 11 more rows, and 12 more variables: other_monetary_comp <dbl>,
    ## #   currency <chr>, additional_context_on_income <chr>, country <chr>,
    ## #   state <chr>, overall_years_of_professional_experience <chr>,
    ## #   years_of_experience_in_field <chr>,
    ## #   highest_level_of_education_completed <chr>, gender <chr>, race <chr>,
    ## #   industry_lump <fct>, total_income <dbl>
…
``` r
survey %>% 
  filter(total_income < 10000) %>% 
  select(state, job_title, overall_years_of_professional_experience, total_income)
```

    ## # A tibble: 58 x 4
    ##    state          job_title           overall_years_of_professiona~ total_income
    ##    <fct>          <chr>               <ord>                                <dbl>
    ##  1 Maryland       Quality Assurance ~ 21-30                                   58
    ##  2 Idaho          Special Education ~ 21-30                                   38
    ##  3 Maryland       Managing Editor     5-7                                     61
    ##  4 New Mexico     Chief Data Scienti~ 8-10                                   130
    ##  5 North Carolina freelance captioner 11-20                                 4000
    ##  6 West Virginia  Operations Manager  31-40                                   35
    ##  7 Minnesota      Engineering Superv~ 11-20                                 5108
    ##  8 District of C~ Assistant Registrar 2-4                                     40
    ##  9 Missouri       Regional Manager    21-30                                   70
    ## 10 Massachusetts  Manager             11-20                                  155
    ## # ... with 48 more rows

``` r
survey <- survey %>% 
  filter(total_income > 10000)
```

``` r
survey %>% 
  group_by(gender, race) %>% 
  count() %>% 
  arrange(desc(n))
```

    ## # A tibble: 30 x 3
    ## # Groups:   gender, race [30]
    ##    gender     race                                                       n
    ##    <fct>      <fct>                                                  <int>
    ##  1 Woman      White                                                  14202
    ##  2 Man        White                                                   3025
    ##  3 Woman      Asian or Asian American                                  737
    ##  4 Woman      Hispanic, Latino, or Spanish origin                      607
    ##  5 Woman      More than one race selected                              507
    ##  6 Non-binary White                                                    455
    ##  7 Woman      Black or African American                                443
    ##  8 Woman      Another option not listed here or prefer not to answer   247
    ##  9 Man        Asian or Asian American                                  172
    ## 10 Man        Hispanic, Latino, or Spanish origin                      170
    ## # ... with 20 more rows
…
``` r
survey %>% 
  filter(total_income > 1000000)
```

    ## # A tibble: 21 x 17
    ##    how_old_are_you industry     job_title       additional_contex~ annual_salary
    ##    <ord>           <chr>        <chr>           <chr>                      <dbl>
    ##  1 35-44           Computing o~ Software Devel~ <NA>                      250000
    ##  2 55-64           Art & Design Owner and CEO   <NA>                     3000000
    ##  3 25-34           Engineering~ Software Engin~ <NA>                     1100000
    ##  4 25-34           Health care  Attending Phys~ <NA>                     1900000
    ##  5 25-34           Computing o~ Principal Soft~ <NA>                     1650000
    ##  6 35-44           Government ~ Senior Policy ~ <NA>                     1334782
    ##  7 45-54           Law          Partner         <NA>                     1200000
    ##  8 35-44           Computing o~ Product Manager <NA>                      135000
    ##  9 35-44           Law          Partner         <NA>                     1100000
    ## 10 25-34           Business or~ Senior Consult~ Consultant in the~       1260000
    ## # ... with 11 more rows, and 12 more variables: other_monetary_comp <dbl>,
    ## #   currency <chr>, additional_context_on_income <chr>, country <chr>,
    ## #   state <fct>, overall_years_of_professional_experience <ord>,
    ## #   years_of_experience_in_field <ord>,
    ## #   highest_level_of_education_completed <ord>, gender <fct>, race <fct>,
    ## #   industry_lump <fct>, total_income <dbl>
…
